{
  "id": "dqm",
  "nodes": [
    {
      "id": "h0",
      "sockets": [
        {
          "endpoint": {
            "element": "h0.0~b0.0"
          }
        },
        {
          "index": 1,
          "endpoint": {
            "element": "h0.1~h1.1~h2.1~h3.1~m0.1"
          }
        }
      ],
      "metal": {
        "op": "EQ",
        "value": true
      },
      "properties": {}
    },
    {
      "id": "h1",
      "sockets": [
        {
          "endpoint": {
            "element": "h1.0~b0.1"
          }
        },
        {
          "index": 1,
          "endpoint": {
            "element": "h0.1~h1.1~h2.1~h3.1~m0.1",
            "index": 1
          }
        }
      ],
      "metal": {
        "op": "EQ",
        "value": true
      },
      "properties": {}
    },
    {
      "id": "h2",
      "sockets": [
        {
          "endpoint": {
            "element": "h2.0~b1.0"
          }
        },
        {
          "index": 1,
          "endpoint": {
            "element": "h0.1~h1.1~h2.1~h3.1~m0.1",
            "index": 2
          }
        }
      ],
      "metal": {
        "op": "EQ",
        "value": true
      },
      "properties": {}
    },
    {
      "id": "h3",
      "sockets": [
        {
          "endpoint": {
            "element": "h3.0~b1.1"
          }
        },
        {
          "index": 1,
          "endpoint": {
            "element": "h0.1~h1.1~h2.1~h3.1~m0.1",
            "index": 3
          }
        }
      ],
      "metal": {
        "op": "EQ",
        "value": true
      },
      "properties": {}
    },
    {
      "id": "b0",
      "sockets": [
        {
          "endpoint": {
            "element": "h0.0~b0.0",
            "index": 1
          }
        },
        {
          "index": 1,
          "endpoint": {
            "element": "h1.0~b0.1",
            "index": 1
          }
        },
        {
          "index": 2,
          "endpoint": {
            "element": "b0.2~sw0.0"
          }
        }
      ],
      "metal": {
        "op": "EQ",
        "value": true
      },
      "properties": {}
    },
    {
      "id": "b1",
      "sockets": [
        {
          "endpoint": {
            "element": "h2.0~b1.0",
            "index": 1
          }
        },
        {
          "index": 1,
          "endpoint": {
            "element": "h3.0~b1.1",
            "index": 1
          }
        },
        {
          "index": 2,
          "endpoint": {
            "element": "b1.2~sw1.0"
          }
        }
      ],
      "metal": {
        "op": "EQ",
        "value": true
      },
      "properties": {}
    },
    {
      "id": "sw0",
      "sockets": [
        {
          "endpoint": {
            "element": "b0.2~sw0.0",
            "index": 1
          }
        },
        {
          "index": 1,
          "endpoint": {
            "element": "sw0.1~c0.0"
          }
        },
        {
          "index": 2,
          "endpoint": {
            "element": "sw0.2~e0.0"
          }
        },
        {
          "index": 3,
          "endpoint": {
            "element": "sw0.3~e0.1"
          }
        }
      ],
      "metal": {
        "op": "EQ",
        "value": true
      },
      "properties": {}
    },
    {
      "id": "sw1",
      "sockets": [
        {
          "endpoint": {
            "element": "b1.2~sw1.0",
            "index": 1
          }
        },
        {
          "index": 1,
          "endpoint": {
            "element": "sw1.1~c0.1"
          }
        },
        {
          "index": 2,
          "endpoint": {
            "element": "sw1.2~e1.0"
          }
        },
        {
          "index": 3,
          "endpoint": {
            "element": "sw1.3~e1.1"
          }
        }
      ],
      "metal": {
        "op": "EQ",
        "value": true
      },
      "properties": {}
    },
    {
      "id": "e0",
      "sockets": [
        {
          "endpoint": {
            "element": "sw0.2~e0.0",
            "index": 1
          }
        },
        {
          "index": 1,
          "endpoint": {
            "element": "sw0.3~e0.1",
            "index": 1
          }
        },
        {
          "index": 2,
          "endpoint": {
            "element": "e0.2~e1.2~s0.0~m0.0"
          }
        }
      ],
      "metal": {
        "op": "EQ",
        "value": true
      },
      "properties": {}
    },
    {
      "id": "e1",
      "sockets": [
        {
          "endpoint": {
            "element": "sw1.2~e1.0",
            "index": 1
          }
        },
        {
          "index": 1,
          "endpoint": {
            "element": "sw1.3~e1.1",
            "index": 1
          }
        },
        {
          "index": 2,
          "endpoint": {
            "element": "e0.2~e1.2~s0.0~m0.0",
            "index": 1
          }
        }
      ],
      "metal": {
        "op": "EQ",
        "value": true
      },
      "properties": {}
    },
    {
      "id": "s0",
      "sockets": [
        {
          "endpoint": {
            "element": "e0.2~e1.2~s0.0~m0.0",
            "index": 2
          }
        }
      ],
      "metal": {
        "op": "EQ",
        "value": true
      },
      "properties": {}
    },
    {
      "id": "m0",
      "sockets": [
        {
          "endpoint": {
            "element": "e0.2~e1.2~s0.0~m0.0",
            "index": 3
          }
        },
        {
          "index": 1,
          "endpoint": {
            "element": "h0.1~h1.1~h2.1~h3.1~m0.1",
            "index": 4
          }
        }
      ],
      "metal": {
        "op": "EQ",
        "value": true
      },
      "properties": {}
    },
    {
      "id": "c0",
      "sockets": [
        {
          "endpoint": {
            "element": "sw0.1~c0.0",
            "index": 1
          }
        },
        {
          "index": 1,
          "endpoint": {
            "element": "sw1.1~c0.1",
            "index": 1
          }
        }
      ],
      "metal": {
        "op": "EQ",
        "value": true
      },
      "properties": {}
    }
  ],
  "links": [
    {
      "id": "h0.0~b0.0",
      "endpoints": [
        {
          "socket": {
            "element": "h0"
          }
        },
        {
          "index": 1,
          "socket": {
            "element": "b0"
          }
        }
      ],
      "properties": {}
    },
    {
      "id": "h1.0~b0.1",
      "endpoints": [
        {
          "socket": {
            "element": "h1"
          }
        },
        {
          "index": 1,
          "socket": {
            "element": "b0",
            "index": 1
          }
        }
      ],
      "properties": {}
    },
    {
      "id": "h2.0~b1.0",
      "endpoints": [
        {
          "socket": {
            "element": "h2"
          }
        },
        {
          "index": 1,
          "socket": {
            "element": "b1"
          }
        }
      ],
      "properties": {}
    },
    {
      "id": "h3.0~b1.1",
      "endpoints": [
        {
          "socket": {
            "element": "h3"
          }
        },
        {
          "index": 1,
          "socket": {
            "element": "b1",
            "index": 1
          }
        }
      ],
      "properties": {}
    },
    {
      "id": "b0.2~sw0.0",
      "endpoints": [
        {
          "socket": {
            "element": "b0",
            "index": 2
          }
        },
        {
          "index": 1,
          "socket": {
            "element": "sw0"
          }
        }
      ],
      "properties": {}
    },
    {
      "id": "sw0.1~c0.0",
      "endpoints": [
        {
          "socket": {
            "element": "sw0",
            "index": 1
          }
        },
        {
          "index": 1,
          "socket": {
            "element": "c0"
          }
        }
      ],
      "properties": {}
    },
    {
      "id": "sw0.2~e0.0",
      "endpoints": [
        {
          "socket": {
            "element": "sw0",
            "index": 2
          }
        },
        {
          "index": 1,
          "socket": {
            "element": "e0"
          }
        }
      ],
      "properties": {}
    },
    {
      "id": "sw0.3~e0.1",
      "endpoints": [
        {
          "socket": {
            "element": "sw0",
            "index": 3
          }
        },
        {
          "index": 1,
          "socket": {
            "element": "e0",
            "index": 1
          }
        }
      ],
      "properties": {}
    },
    {
      "id": "b1.2~sw1.0",
      "endpoints": [
        {
          "socket": {
            "element": "b1",
            "index": 2
          }
        },
        {
          "index": 1,
          "socket": {
            "element": "sw1"
          }
        }
      ],
      "properties": {}
    },
    {
      "id": "sw1.1~c0.1",
      "endpoints": [
        {
          "socket": {
            "element": "sw1",
            "index": 1
          }
        },
        {
          "index": 1,
          "socket": {
            "element": "c0",
            "index": 1
          }
        }
      ],
      "properties": {}
    },
    {
      "id": "sw1.2~e1.0",
      "endpoints": [
        {
          "socket": {
            "element": "sw1",
            "index": 2
          }
        },
        {
          "index": 1,
          "socket": {
            "element": "e1"
          }
        }
      ],
      "properties": {}
    },
    {
      "id": "sw1.3~e1.1",
      "endpoints": [
        {
          "socket": {
            "element": "sw1",
            "index": 3
          }
        },
        {
          "index": 1,
          "socket": {
            "element": "e1",
            "index": 1
          }
        }
      ],
      "properties": {}
    },
    {
      "id": "e0.2~e1.2~s0.0~m0.0",
      "endpoints": [
        {
          "socket": {
            "element": "e0",
            "index": 2
          }
        },
        {
          "index": 1,
          "socket": {
            "element": "e1",
            "index": 2
          }
        },
        {
          "index": 2,
          "socket": {
            "element": "s0"
          }
        },
        {
          "index": 3,
          "socket": {
            "element": "m0"
          }
        }
      ],
      "properties": {}
    },
    {
      "id": "h0.1~h1.1~h2.1~h3.1~m0.1",
      "endpoints": [
        {
          "socket": {
            "element": "h0",
            "index": 1
          }
        },
        {
          "index": 1,
          "socket": {
            "element": "h1",
            "index": 1
          }
        },
        {
          "index": 2,
          "socket": {
            "element": "h2",
            "index": 1
          }
        },
        {
          "index": 3,
          "socket": {
            "element": "h3",
            "index": 1
          }
        },
        {
          "index": 4,
          "socket": {
            "element": "m0",
            "index": 1
          }
        }
      ],
      "properties": {}
    }
  ],
  "parameters": {}
}