{
  "id":  "phobos",
  "fqdn":  "phobos.example.com",
  "resources":  [
    {
      "id":  "ifr",
      "NICs":  [
        {
          "ports":  [
            {
              "parent":  "ifr",
              "capacity":  "1000000000"
            }
          ],
          "startingIndex":  1,
          "kind":  "ENS"
        },
        {
          "ports":  [
            {
              "parent":  "ifr",
              "index":  1,
              "capacity":  "1000000000",
              "mac":  "04:70:00:00:00:04",
              "connector":  {
                "element":  "mgmt.4-ifr.1",
                "index":  1
              },
              "role":  "MgmtLink"
            }
          ],
          "startingIndex":  1,
          "kind":  "ENS"
        },
        {
          "ports":  [
            {
              "parent":  "ifr",
              "index":  2,
              "capacity":  "1000000000",
              "mac":  "04:71:00:00:00:04",
              "connector":  {
                "element":  "infra.1-ifr.2",
                "index":  1
              },
              "role":  "InfraLink"
            }
          ],
          "startingIndex":  1,
          "kind":  "ENS"
        },
        {
          "ports":  [
            {
              "parent":  "ifr",
              "index":  3,
              "capacity":  "1000000000",
              "mac":  "04:72:00:00:00:04",
              "role":  "GatewayLink"
            }
          ],
          "startingIndex":  1,
          "kind":  "ENS"
        }
      ],
      "disks":  [
        {
          "formFactor":  "SSD25",
          "diskInterface":  "SATA3",
          "roles":  [
            "System"
          ]
        },
        {
          "formFactor":  "SSD25",
          "diskInterface":  "SATA3",
          "roles":  [
            "Etcd"
          ]
        },
        {
          "formFactor":  "SSD25",
          "diskInterface":  "SATA3",
          "roles":  [
            "MinIO"
          ]
        }
      ],
      "alloc":  [
        "NoAlloc"
      ],
      "roles":  [
        "InfraServer",
        "EtcdHost",
        "MinIOHost",
        "RexHost",
        "DriverHost",
        "ManagerHost",
        "CommanderHost",
        "BorderGateway",
        "Gateway",
        "InfrapodServer"
      ],
      "OS":  {
        "BGP":  [
          {
            "vrf":  "ifabric",
            "ASN":  4200000000,
            "Interfaces":  [
              {
                "address":  "10.99.0.1/24",
                "interface":  "lo"
              }
            ]
          }
        ]
      },
      "productInfo":  {
        "Manufacturer":  "Qemu",
        "Model":  "Infrapod Server"
      },
      "raven":  {
        "host":  "172.22.0.1"
      }
    },
    {
      "id":  "stor",
      "NICs":  [
        {
          "ports":  [
            {
              "parent":  "stor",
              "capacity":  "1000000000",
              "mac":  "04:70:00:00:00:05",
              "connector":  {
                "element":  "mgmt.5-stor.0",
                "index":  1
              },
              "role":  "MgmtLink"
            }
          ],
          "startingIndex":  1,
          "kind":  "ENS"
        },
        {
          "ports":  [
            {
              "parent":  "stor",
              "index":  1,
              "capacity":  "1000000000",
              "mac":  "04:71:00:00:00:05",
              "connector":  {
                "element":  "infra.2-stor.1",
                "index":  1
              },
              "role":  "InfraLink"
            }
          ],
          "startingIndex":  1,
          "kind":  "ENS"
        }
      ],
      "disks":  [
        {
          "formFactor":  "SSD25",
          "diskInterface":  "SATA3",
          "roles":  [
            "System"
          ]
        },
        {
          "capacity":  "21474836480",
          "formFactor":  "SSD25",
          "diskInterface":  "SATA3",
          "roles":  [
            "Rally"
          ]
        },
        {
          "capacity":  "21474836480",
          "formFactor":  "SSD25",
          "diskInterface":  "SATA3",
          "roles":  [
            "Rally"
          ]
        }
      ],
      "alloc":  [
        "Filesystem",
        "BlockDevice"
      ],
      "roles":  [
        "StorageServer",
        "SledHost",
        "RallyHost"
      ],
      "OS":  {
        "BGP":  [
          {
            "vrf":  "ifabric",
            "ASN":  4200000001,
            "Interfaces":  [
              {
                "address":  "10.99.0.2/24",
                "interface":  "lo"
              }
            ]
          }
        ]
      },
      "productInfo":  {
        "Manufacturer":  "Qemu",
        "Model":  "Storage Server"
      },
      "raven":  {
        "host":  "172.22.0.1"
      }
    },
    {
      "id":  "emu",
      "NICs":  [
        {
          "ports":  [
            {
              "parent":  "emu",
              "capacity":  "1000000000",
              "mac":  "04:70:00:00:00:06",
              "connector":  {
                "element":  "mgmt.6-emu.0",
                "index":  1
              },
              "role":  "MgmtLink"
            }
          ],
          "startingIndex":  1,
          "kind":  "ENS"
        },
        {
          "ports":  [
            {
              "parent":  "emu",
              "index":  1,
              "capacity":  "1000000000",
              "mac":  "04:71:00:00:00:06",
              "connector":  {
                "element":  "infra.3-emu.1",
                "index":  1
              },
              "role":  "InfraLink"
            }
          ],
          "startingIndex":  1,
          "kind":  "ENS"
        },
        {
          "ports":  [
            {
              "parent":  "emu",
              "index":  2,
              "capacity":  "1000000000",
              "mac":  "04:72:00:00:00:06",
              "connector":  {
                "element":  "xp.1-emu.2",
                "index":  1
              },
              "role":  "XpLink"
            }
          ],
          "startingIndex":  1,
          "kind":  "ENS"
        }
      ],
      "disks":  [
        {
          "formFactor":  "SSD25",
          "diskInterface":  "SATA3",
          "roles":  [
            "System"
          ]
        }
      ],
      "alloc":  [
        "NetEmu"
      ],
      "roles":  [
        "NetworkEmulator"
      ],
      "OS":  {
        "BGP":  [
          {
            "vrf":  "xfabric",
            "ASN":  4210000000,
            "Interfaces":  [
              {
                "address":  "10.99.1.1/24",
                "interface":  "lo"
              }
            ]
          }
        ]
      },
      "productInfo":  {
        "Manufacturer":  "Qemu",
        "Model":  "Network Emulator"
      },
      "raven":  {
        "host":  "172.22.0.1"
      }
    },
    {
      "id":  "x0",
      "procs":  [
        {
          "cores":  2,
          "reservedCores":  1
        }
      ],
      "memory":  [
        {
          "capacity":  "4294967296",
          "reservedCapacity":  "3221225472"
        }
      ],
      "NICs":  [
        {
          "ports":  [
            {
              "parent":  "x0",
              "capacity":  "1000000000",
              "mac":  "04:70:00:00:00:10",
              "connector":  {
                "element":  "mgmt.7-x0.0",
                "index":  1
              },
              "role":  "MgmtLink",
              "name":  "ens1"
            }
          ],
          "startingIndex":  1,
          "kind":  "ENS"
        },
        {
          "ports":  [
            {
              "parent":  "x0",
              "index":  1,
              "capacity":  "1000000000",
              "mac":  "04:71:00:00:00:10",
              "connector":  {
                "element":  "infra.4-x0.1",
                "index":  1
              },
              "role":  "InfraLink",
              "name":  "ens2"
            }
          ],
          "startingIndex":  1,
          "kind":  "ENS"
        },
        {
          "ports":  [
            {
              "parent":  "x0",
              "index":  2,
              "capacity":  "1000000000",
              "mac":  "04:72:00:00:00:10",
              "connector":  {
                "element":  "xp.2-x0.2",
                "index":  1
              },
              "role":  "XpLink",
              "name":  "ens3"
            }
          ],
          "startingIndex":  1,
          "kind":  "ENS"
        }
      ],
      "disks":  [
        {
          "formFactor":  "SSD25",
          "diskInterface":  "SATA3",
          "roles":  [
            "System"
          ]
        },
        {
          "capacity":  "10737418240",
          "formFactor":  "SSD25",
          "diskInterface":  "SATA3",
          "roles":  [
            "Mariner"
          ]
        },
        {
          "capacity":  "10737418240",
          "formFactor":  "SSD25",
          "diskInterface":  "SATA3",
          "roles":  [
            "Mariner"
          ]
        }
      ],
      "alloc":  [
        "Physical",
        "Virtual"
      ],
      "roles":  [
        "TbNode",
        "Hypervisor"
      ],
      "firmware":  {
        "kind":  "UEFI"
      },
      "OS":  {
        "rootdev":  "/dev/sda",
        "defaultImage":  "bullseye",
        "BGP":  [
          {
            "vrf":  "xfabric",
            "ASN":  4200000004,
            "Interfaces":  [
              {
                "address":  "10.99.1.4/24",
                "interface":  "lo"
              }
            ]
          }
        ]
      },
      "productInfo":  {
        "Manufacturer":  "Qemu",
        "Model":  "Testbed Node"
      },
      "raven":  {
        "host":  "172.22.0.1"
      }
    },
    {
      "id":  "x1",
      "procs":  [
        {
          "cores":  2,
          "reservedCores":  1
        }
      ],
      "memory":  [
        {
          "capacity":  "4294967296",
          "reservedCapacity":  "2147483648"
        }
      ],
      "NICs":  [
        {
          "ports":  [
            {
              "parent":  "x1",
              "capacity":  "1000000000",
              "mac":  "04:70:00:00:00:11",
              "connector":  {
                "element":  "mgmt.8-x1.0",
                "index":  1
              },
              "role":  "MgmtLink",
              "name":  "ens1"
            }
          ],
          "startingIndex":  1,
          "kind":  "ENS"
        },
        {
          "ports":  [
            {
              "parent":  "x1",
              "index":  1,
              "capacity":  "1000000000",
              "mac":  "04:71:00:00:00:11",
              "connector":  {
                "element":  "infra.5-x1.1",
                "index":  1
              },
              "role":  "InfraLink",
              "name":  "ens2"
            }
          ],
          "startingIndex":  1,
          "kind":  "ENS"
        },
        {
          "ports":  [
            {
              "parent":  "x1",
              "index":  2,
              "capacity":  "1000000000",
              "mac":  "04:72:00:00:00:11",
              "connector":  {
                "element":  "xp.3-x1.2",
                "index":  1
              },
              "role":  "XpLink",
              "name":  "ens3"
            }
          ],
          "startingIndex":  1,
          "kind":  "ENS"
        }
      ],
      "disks":  [
        {
          "formFactor":  "SSD25",
          "diskInterface":  "SATA3",
          "roles":  [
            "System"
          ]
        },
        {
          "capacity":  "10737418240",
          "formFactor":  "SSD25",
          "diskInterface":  "SATA3",
          "roles":  [
            "Mariner"
          ]
        },
        {
          "capacity":  "10737418240",
          "formFactor":  "SSD25",
          "diskInterface":  "SATA3",
          "roles":  [
            "Mariner"
          ]
        }
      ],
      "alloc":  [
        "Physical",
        "Virtual"
      ],
      "roles":  [
        "TbNode",
        "Hypervisor"
      ],
      "firmware":  {
        "kind":  "UEFI"
      },
      "OS":  {
        "rootdev":  "/dev/sda",
        "defaultImage":  "bullseye",
        "BGP":  [
          {
            "vrf":  "xfabric",
            "ASN":  4200000005,
            "Interfaces":  [
              {
                "address":  "10.99.1.5/24",
                "interface":  "lo"
              }
            ]
          }
	]
      },
      "productInfo":  {
        "Manufacturer":  "Qemu",
        "Model":  "Testbed Node"
      },
      "raven":  {
        "host":  "172.22.0.1"
      }
    },
    {
      "id":  "x2",
      "procs":  [
        {
          "cores":  2,
          "reservedCores":  1
        }
      ],
      "memory":  [
        {
          "capacity":  "4294967296",
          "reservedCapacity":  "2147483648"
        }
      ],
      "NICs":  [
        {
          "ports":  [
            {
              "parent":  "x2",
              "capacity":  "1000000000",
              "mac":  "04:70:00:00:00:12",
              "connector":  {
                "element":  "mgmt.9-x2.0",
                "index":  1
              },
              "role":  "MgmtLink",
              "name":  "ens1"
            }
          ],
          "startingIndex":  1,
          "kind":  "ENS"
        },
        {
          "ports":  [
            {
              "parent":  "x2",
              "index":  1,
              "capacity":  "1000000000",
              "mac":  "04:71:00:00:00:12",
              "connector":  {
                "element":  "infra.6-x2.1",
                "index":  1
              },
              "role":  "InfraLink",
              "name":  "ens2"
            }
          ],
          "startingIndex":  1,
          "kind":  "ENS"
        },
        {
          "ports":  [
            {
              "parent":  "x2",
              "index":  2,
              "capacity":  "1000000000",
              "mac":  "04:72:00:00:00:12",
              "connector":  {
                "element":  "xp.4-x2.2",
                "index":  1
              },
              "role":  "XpLink",
              "name":  "ens3"
            }
          ],
          "startingIndex":  1,
          "kind":  "ENS"
        }
      ],
      "disks":  [
        {
          "formFactor":  "SSD25",
          "diskInterface":  "SATA3",
          "roles":  [
            "System"
          ]
        },
        {
          "capacity":  "10737418240",
          "formFactor":  "SSD25",
          "diskInterface":  "SATA3",
          "roles":  [
            "Mariner"
          ]
        },
        {
          "capacity":  "10737418240",
          "formFactor":  "SSD25",
          "diskInterface":  "SATA3",
          "roles":  [
            "Mariner"
          ]
        }
      ],
      "alloc":  [
        "Physical",
        "Virtual"
      ],
      "roles":  [
        "TbNode",
        "Hypervisor"
      ],
      "firmware":  {
        "kind":  "UEFI"
      },
      "OS":  {
        "rootdev":  "/dev/sda",
        "defaultImage":  "bullseye",
        "BGP":  [
          {
            "vrf":  "xfabric",
            "ASN":  4200000006,
            "Interfaces":  [
              {
                "address":  "10.99.1.6/24",
                "interface":  "lo"
              }
            ]
          }
	]
      },
      "productInfo":  {
        "Manufacturer":  "Qemu",
        "Model":  "Testbed Node"
      },
      "raven":  {
        "host":  "172.22.0.1"
      }
    },
    {
      "id":  "x3",
      "procs":  [
        {
          "cores":  2,
          "reservedCores":  1
        }
      ],
      "memory":  [
        {
          "capacity":  "4294967296",
          "reservedCapacity":  "1073741824"
        }
      ],
      "NICs":  [
        {
          "ports":  [
            {
              "parent":  "x3",
              "capacity":  "1000000000",
              "mac":  "04:70:00:00:00:13",
              "connector":  {
                "element":  "mgmt.10-x3.0",
                "index":  1
              },
              "role":  "MgmtLink",
              "name":  "ens1"
            }
          ],
          "startingIndex":  1,
          "kind":  "ENS"
        },
        {
          "ports":  [
            {
              "parent":  "x3",
              "index":  1,
              "capacity":  "1000000000",
              "mac":  "04:71:00:00:00:13",
              "connector":  {
                "element":  "infra.7-x3.1",
                "index":  1
              },
              "role":  "InfraLink",
              "name":  "ens2"
            }
          ],
          "startingIndex":  1,
          "kind":  "ENS"
        },
        {
          "ports":  [
            {
              "parent":  "x3",
              "index":  2,
              "capacity":  "1000000000",
              "mac":  "04:72:00:00:00:13",
              "connector":  {
                "element":  "xp.5-x3.2",
                "index":  1
              },
              "role":  "XpLink",
              "name":  "ens3"
            }
          ],
          "startingIndex":  1,
          "kind":  "ENS"
        }
      ],
      "disks":  [
        {
          "formFactor":  "SSD25",
          "diskInterface":  "SATA3",
          "roles":  [
            "System"
          ]
        },
        {
          "capacity":  "10737418240",
          "formFactor":  "SSD25",
          "diskInterface":  "SATA3",
          "roles":  [
            "Mariner"
          ]
        },
        {
          "capacity":  "10737418240",
          "formFactor":  "SSD25",
          "diskInterface":  "SATA3",
          "roles":  [
            "Mariner"
          ]
        }
      ],
      "alloc":  [
        "Physical",
        "Virtual"
      ],
      "roles":  [
        "TbNode",
        "Hypervisor"
      ],
      "firmware":  {
        "kind":  "UEFI"
      },
      "OS":  {
        "rootdev":  "/dev/sda",
        "defaultImage":  "bullseye",
        "BGP":  [
          {
            "vrf":  "xfabric",
            "ASN":  4200000007,
            "Interfaces":  [
              {
                "address":  "10.99.1.7/24",
                "interface":  "lo"
              }
            ]
          }
	]
      },
      "productInfo":  {
        "Manufacturer":  "Qemu",
        "Model":  "Testbed Node"
      },
      "raven":  {
        "host":  "172.22.0.1"
      }
    },
    {
      "id":  "mgmt",
      "NICs":  [
        {
          "ports":  [
            {
              "parent":  "mgmt",
              "capacity":  "1000000000",
              "role":  "MgmtLink"
            }
          ]
        },
        {
          "ports":  [
            {
              "parent":  "mgmt",
              "index":  1,
              "capacity":  "1000000000",
              "connector":  {
                "element":  "mgmt.1-infra.0"
              },
              "role":  "MgmtLink"
            },
            {
              "parent":  "mgmt",
              "index":  2,
              "capacity":  "1000000000",
              "connector":  {
                "element":  "mgmt.2-xp.0"
              },
              "role":  "MgmtLink"
            },
            {
              "parent":  "mgmt",
              "index":  3,
              "capacity":  "1000000000",
              "role":  "MgmtLink"
            },
            {
              "parent":  "mgmt",
              "index":  4,
              "capacity":  "1000000000",
              "connector":  {
                "element":  "mgmt.4-ifr.1"
              },
              "role":  "MgmtLink"
            },
            {
              "parent":  "mgmt",
              "index":  5,
              "capacity":  "1000000000",
              "connector":  {
                "element":  "mgmt.5-stor.0"
              },
              "role":  "MgmtLink"
            },
            {
              "parent":  "mgmt",
              "index":  6,
              "capacity":  "1000000000",
              "connector":  {
                "element":  "mgmt.6-emu.0"
              },
              "role":  "MgmtLink"
            },
            {
              "parent":  "mgmt",
              "index":  7,
              "capacity":  "1000000000",
              "connector":  {
                "element":  "mgmt.7-x0.0"
              },
              "role":  "MgmtLink"
            },
            {
              "parent":  "mgmt",
              "index":  8,
              "capacity":  "1000000000",
              "connector":  {
                "element":  "mgmt.8-x1.0"
              },
              "role":  "MgmtLink"
            },
            {
              "parent":  "mgmt",
              "index":  9,
              "capacity":  "1000000000",
              "connector":  {
                "element":  "mgmt.9-x2.0"
              },
              "role":  "MgmtLink"
            },
            {
              "parent":  "mgmt",
              "index":  10,
              "capacity":  "1000000000",
              "connector":  {
                "element":  "mgmt.10-x3.0"
              },
              "role":  "MgmtLink"
            }
          ],
          "startingIndex":  1,
          "kind":  "SWP"
        }
      ],
      "alloc":  [
        "Net"
      ],
      "roles":  [
        "MgmtSwitch",
        "Leaf",
        "Stem"
      ],
      "productInfo":  {
        "Manufacturer":  "Qemu",
        "Model":  "Mgmt Leaf"
      }
    },
    {
      "id":  "infra",
      "NICs":  [
        {
          "ports":  [
            {
              "parent":  "infra",
              "capacity":  "1000000000",
              "mac":  "04:70:00:00:00:01",
              "connector":  {
                "element":  "mgmt.1-infra.0",
                "index":  1
              },
              "role":  "MgmtLink"
            }
          ]
        },
        {
          "ports":  [
            {
              "parent":  "infra",
              "index":  1,
              "capacity":  "1000000000",
              "connector":  {
                "element":  "infra.1-ifr.2"
              },
              "role":  "InfraLink"
            },
            {
              "parent":  "infra",
              "index":  2,
              "capacity":  "1000000000",
              "connector":  {
                "element":  "infra.2-stor.1"
              },
              "role":  "InfraLink"
            },
            {
              "parent":  "infra",
              "index":  3,
              "capacity":  "1000000000",
              "connector":  {
                "element":  "infra.3-emu.1"
              },
              "role":  "InfraLink"
            },
            {
              "parent":  "infra",
              "index":  4,
              "capacity":  "1000000000",
              "connector":  {
                "element":  "infra.4-x0.1"
              },
              "role":  "InfraLink"
            },
            {
              "parent":  "infra",
              "index":  5,
              "capacity":  "1000000000",
              "connector":  {
                "element":  "infra.5-x1.1"
              },
              "role":  "InfraLink"
            },
            {
              "parent":  "infra",
              "index":  6,
              "capacity":  "1000000000",
              "connector":  {
                "element":  "infra.6-x2.1"
              },
              "role":  "InfraLink"
            },
            {
              "parent":  "infra",
              "index":  7,
              "capacity":  "1000000000",
              "connector":  {
                "element":  "infra.7-x3.1"
              },
              "role":  "InfraLink"
            }
          ],
          "startingIndex":  1,
          "kind":  "SWP"
        }
      ],
      "alloc":  [
        "Net"
      ],
      "roles":  [
        "InfraSwitch",
        "Leaf",
        "Stem"
      ],
      "OS":  {
        "BGP":  [
          {
            "vrf":  "ifabric",
            "ASN":  4200000002,
            "Interfaces":  [
              {
                "address":  "10.99.0.3/24",
                "interface":  "lo"
              }
            ]
          }
        ]
      },
      "productInfo":  {
        "Manufacturer":  "Qemu",
        "Model":  "Infra Leaf"
      }
    },
    {
      "id":  "xp",
      "NICs":  [
        {
          "ports":  [
            {
              "parent":  "xp",
              "capacity":  "1000000000",
              "mac":  "04:70:00:00:00:02",
              "connector":  {
                "element":  "mgmt.2-xp.0",
                "index":  1
              },
              "role":  "MgmtLink"
            }
          ]
        },
        {
          "ports":  [
            {
              "parent":  "xp",
              "index":  1,
              "capacity":  "1000000000",
              "connector":  {
                "element":  "xp.1-emu.2"
              },
              "role":  "XpLink"
            },
            {
              "parent":  "xp",
              "index":  2,
              "capacity":  "1000000000",
              "connector":  {
                "element":  "xp.2-x0.2"
              },
              "role":  "XpLink"
            },
            {
              "parent":  "xp",
              "index":  3,
              "capacity":  "1000000000",
              "connector":  {
                "element":  "xp.3-x1.2"
              },
              "role":  "XpLink"
            },
            {
              "parent":  "xp",
              "index":  4,
              "capacity":  "1000000000",
              "connector":  {
                "element":  "xp.4-x2.2"
              },
              "role":  "XpLink"
            },
            {
              "parent":  "xp",
              "index":  5,
              "capacity":  "1000000000",
              "connector":  {
                "element":  "xp.5-x3.2"
              },
              "role":  "XpLink"
            }
          ],
          "startingIndex":  1,
          "kind":  "SWP"
        }
      ],
      "alloc":  [
        "Net"
      ],
      "roles":  [
        "XpSwitch",
        "Leaf",
        "Stem"
      ],
      "OS":  {
        "BGP":  [
          {
            "vrf":  "xfabric",
            "ASN":  4210000001,
            "Interfaces":  [
              {
                "address":  "10.99.1.2/24",
                "interface":  "lo"
              }
            ]
          }
        ]
      },
      "productInfo":  {
        "Manufacturer":  "Qemu",
        "Model":  "Xp Leaf"
      }
    }
  ],
  "cables":  [
    {
      "id":  "mgmt.1-infra.0",
      "ends":  [
        {
          "connectors":  [
            {
              "parent":  "mgmt.1-infra.0",
              "Port":  {
                "element":  "mgmt",
                "index":  1
              }
            }
          ]
        },
        {
          "connectors":  [
            {
              "parent":  "mgmt.1-infra.0",
              "index":  1,
              "Port":  {
                "element":  "infra"
              }
            }
          ]
        }
      ]
    },
    {
      "id":  "mgmt.2-xp.0",
      "ends":  [
        {
          "connectors":  [
            {
              "parent":  "mgmt.2-xp.0",
              "Port":  {
                "element":  "mgmt",
                "index":  2
              }
            }
          ]
        },
        {
          "connectors":  [
            {
              "parent":  "mgmt.2-xp.0",
              "index":  1,
              "Port":  {
                "element":  "xp"
              }
            }
          ]
        }
      ]
    },
    {
      "id":  "mgmt.4-ifr.1",
      "ends":  [
        {
          "connectors":  [
            {
              "parent":  "mgmt.4-ifr.1",
              "Port":  {
                "element":  "mgmt",
                "index":  4
              }
            }
          ]
        },
        {
          "connectors":  [
            {
              "parent":  "mgmt.4-ifr.1",
              "index":  1,
              "Port":  {
                "element":  "ifr",
                "index":  1
              }
            }
          ]
        }
      ]
    },
    {
      "id":  "mgmt.5-stor.0",
      "ends":  [
        {
          "connectors":  [
            {
              "parent":  "mgmt.5-stor.0",
              "Port":  {
                "element":  "mgmt",
                "index":  5
              }
            }
          ]
        },
        {
          "connectors":  [
            {
              "parent":  "mgmt.5-stor.0",
              "index":  1,
              "Port":  {
                "element":  "stor"
              }
            }
          ]
        }
      ]
    },
    {
      "id":  "mgmt.6-emu.0",
      "ends":  [
        {
          "connectors":  [
            {
              "parent":  "mgmt.6-emu.0",
              "Port":  {
                "element":  "mgmt",
                "index":  6
              }
            }
          ]
        },
        {
          "connectors":  [
            {
              "parent":  "mgmt.6-emu.0",
              "index":  1,
              "Port":  {
                "element":  "emu"
              }
            }
          ]
        }
      ]
    },
    {
      "id":  "mgmt.7-x0.0",
      "ends":  [
        {
          "connectors":  [
            {
              "parent":  "mgmt.7-x0.0",
              "Port":  {
                "element":  "mgmt",
                "index":  7
              }
            }
          ]
        },
        {
          "connectors":  [
            {
              "parent":  "mgmt.7-x0.0",
              "index":  1,
              "Port":  {
                "element":  "x0"
              }
            }
          ]
        }
      ]
    },
    {
      "id":  "mgmt.8-x1.0",
      "ends":  [
        {
          "connectors":  [
            {
              "parent":  "mgmt.8-x1.0",
              "Port":  {
                "element":  "mgmt",
                "index":  8
              }
            }
          ]
        },
        {
          "connectors":  [
            {
              "parent":  "mgmt.8-x1.0",
              "index":  1,
              "Port":  {
                "element":  "x1"
              }
            }
          ]
        }
      ]
    },
    {
      "id":  "mgmt.9-x2.0",
      "ends":  [
        {
          "connectors":  [
            {
              "parent":  "mgmt.9-x2.0",
              "Port":  {
                "element":  "mgmt",
                "index":  9
              }
            }
          ]
        },
        {
          "connectors":  [
            {
              "parent":  "mgmt.9-x2.0",
              "index":  1,
              "Port":  {
                "element":  "x2"
              }
            }
          ]
        }
      ]
    },
    {
      "id":  "mgmt.10-x3.0",
      "ends":  [
        {
          "connectors":  [
            {
              "parent":  "mgmt.10-x3.0",
              "Port":  {
                "element":  "mgmt",
                "index":  10
              }
            }
          ]
        },
        {
          "connectors":  [
            {
              "parent":  "mgmt.10-x3.0",
              "index":  1,
              "Port":  {
                "element":  "x3"
              }
            }
          ]
        }
      ]
    },
    {
      "id":  "infra.1-ifr.2",
      "ends":  [
        {
          "connectors":  [
            {
              "parent":  "infra.1-ifr.2",
              "Port":  {
                "element":  "infra",
                "index":  1
              }
            }
          ]
        },
        {
          "connectors":  [
            {
              "parent":  "infra.1-ifr.2",
              "index":  1,
              "Port":  {
                "element":  "ifr",
                "index":  2
              }
            }
          ]
        }
      ]
    },
    {
      "id":  "infra.2-stor.1",
      "ends":  [
        {
          "connectors":  [
            {
              "parent":  "infra.2-stor.1",
              "Port":  {
                "element":  "infra",
                "index":  2
              }
            }
          ]
        },
        {
          "connectors":  [
            {
              "parent":  "infra.2-stor.1",
              "index":  1,
              "Port":  {
                "element":  "stor",
                "index":  1
              }
            }
          ]
        }
      ]
    },
    {
      "id":  "infra.3-emu.1",
      "ends":  [
        {
          "connectors":  [
            {
              "parent":  "infra.3-emu.1",
              "Port":  {
                "element":  "infra",
                "index":  3
              }
            }
          ]
        },
        {
          "connectors":  [
            {
              "parent":  "infra.3-emu.1",
              "index":  1,
              "Port":  {
                "element":  "emu",
                "index":  1
              }
            }
          ]
        }
      ]
    },
    {
      "id":  "infra.4-x0.1",
      "ends":  [
        {
          "connectors":  [
            {
              "parent":  "infra.4-x0.1",
              "Port":  {
                "element":  "infra",
                "index":  4
              }
            }
          ]
        },
        {
          "connectors":  [
            {
              "parent":  "infra.4-x0.1",
              "index":  1,
              "Port":  {
                "element":  "x0",
                "index":  1
              }
            }
          ]
        }
      ]
    },
    {
      "id":  "infra.5-x1.1",
      "ends":  [
        {
          "connectors":  [
            {
              "parent":  "infra.5-x1.1",
              "Port":  {
                "element":  "infra",
                "index":  5
              }
            }
          ]
        },
        {
          "connectors":  [
            {
              "parent":  "infra.5-x1.1",
              "index":  1,
              "Port":  {
                "element":  "x1",
                "index":  1
              }
            }
          ]
        }
      ]
    },
    {
      "id":  "infra.6-x2.1",
      "ends":  [
        {
          "connectors":  [
            {
              "parent":  "infra.6-x2.1",
              "Port":  {
                "element":  "infra",
                "index":  6
              }
            }
          ]
        },
        {
          "connectors":  [
            {
              "parent":  "infra.6-x2.1",
              "index":  1,
              "Port":  {
                "element":  "x2",
                "index":  1
              }
            }
          ]
        }
      ]
    },
    {
      "id":  "infra.7-x3.1",
      "ends":  [
        {
          "connectors":  [
            {
              "parent":  "infra.7-x3.1",
              "Port":  {
                "element":  "infra",
                "index":  7
              }
            }
          ]
        },
        {
          "connectors":  [
            {
              "parent":  "infra.7-x3.1",
              "index":  1,
              "Port":  {
                "element":  "x3",
                "index":  1
              }
            }
          ]
        }
      ]
    },
    {
      "id":  "xp.1-emu.2",
      "ends":  [
        {
          "connectors":  [
            {
              "parent":  "xp.1-emu.2",
              "Port":  {
                "element":  "xp",
                "index":  1
              }
            }
          ]
        },
        {
          "connectors":  [
            {
              "parent":  "xp.1-emu.2",
              "index":  1,
              "Port":  {
                "element":  "emu",
                "index":  2
              }
            }
          ]
        }
      ]
    },
    {
      "id":  "xp.2-x0.2",
      "ends":  [
        {
          "connectors":  [
            {
              "parent":  "xp.2-x0.2",
              "Port":  {
                "element":  "xp",
                "index":  2
              }
            }
          ]
        },
        {
          "connectors":  [
            {
              "parent":  "xp.2-x0.2",
              "index":  1,
              "Port":  {
                "element":  "x0",
                "index":  2
              }
            }
          ]
        }
      ]
    },
    {
      "id":  "xp.3-x1.2",
      "ends":  [
        {
          "connectors":  [
            {
              "parent":  "xp.3-x1.2",
              "Port":  {
                "element":  "xp",
                "index":  3
              }
            }
          ]
        },
        {
          "connectors":  [
            {
              "parent":  "xp.3-x1.2",
              "index":  1,
              "Port":  {
                "element":  "x1",
                "index":  2
              }
            }
          ]
        }
      ]
    },
    {
      "id":  "xp.4-x2.2",
      "ends":  [
        {
          "connectors":  [
            {
              "parent":  "xp.4-x2.2",
              "Port":  {
                "element":  "xp",
                "index":  4
              }
            }
          ]
        },
        {
          "connectors":  [
            {
              "parent":  "xp.4-x2.2",
              "index":  1,
              "Port":  {
                "element":  "x2",
                "index":  2
              }
            }
          ]
        }
      ]
    },
    {
      "id":  "xp.5-x3.2",
      "ends":  [
        {
          "connectors":  [
            {
              "parent":  "xp.5-x3.2",
              "Port":  {
                "element":  "xp",
                "index":  5
              }
            }
          ]
        },
        {
          "connectors":  [
            {
              "parent":  "xp.5-x3.2",
              "index":  1,
              "Port":  {
                "element":  "x3",
                "index":  2
              }
            }
          ]
        }
      ]
    }
  ]
}
